%YAML 1.1
%TAG !u! tag:unity3d.com,2011:
--- !u!114 &11400000
MonoBehaviour:
  m_ObjectHideFlags: 0
  m_CorrespondingSourceObject: {fileID: 0}
  m_PrefabInstance: {fileID: 0}
  m_PrefabAsset: {fileID: 0}
  m_GameObject: {fileID: 0}
  m_Enabled: 1
  m_EditorHideFlags: 0
  m_Script: {fileID: 11500000, guid: 3ba507550c3ade14cab7dd436b86c22f, type: 3}
  m_Name: 8B57A359-F4BB-4FFA-B16A-48EFFDEB082F
  m_EditorClassIdentifier: 
  objectName: IntroAniStop
  id: 2159427841
  guid: 8B57A359-F4BB-4FFA-B16A-48EFFDEB082F
